CITIES_demo
…
estimates_out %>%
  mutate(mean_se = paste0(mean, " (", round(se, 2) , ")")) %>%
  dplyr::select(-se, -mean) %>%
  pivot_wider(names_from = Estimand, values_from = mean_se)

## # A tibble: 22 × 8
##    Arm   name  Timepoints PP          `S++`       `S*+`       Full        IR    
##    <chr> <chr>      <dbl> <chr>       <chr>       <chr>       <chr>       <chr> 
##  1 Arm 2 1             24 0.34 (0.23) 0.08 (0.12) 0.18 (0.11) 0.08 (0.1)  0.45 …
##  2 Arm 2 2             48 0.43 (0.2)  0.18 (0.13) 0.24 (0.13) 0.18 (0.12) 0.52 …
##  3 Arm 2 3             72 0.6 (0.29)  0.4 (0.16)  0.48 (0.17) 0.41 (0.15) 0.67 …
##  4 Arm 2 4             96 0.71 (0.35) 0.51 (0.15) 0.62 (0.11) 0.58 (0.12) 0.77 …
##  5 Arm 2 5            120 0.81 (0.32) 0.68 (0.28) 0.86 (0.22) 0.77 (0.15) 0.85 …
##  6 Arm 2 6            144 0.9 (0.35)  0.87 (0.22) 0.96 (0.16) 0.99 (0.16) 0.79 …
##  7 Arm 2 7            168 0.91 (0.46) 0.91 (0.24) 1.1 (0.19)  1.09 (0.16) 0.77 …
##  8 Arm 2 8            192 1.16 (0.42) 1.21 (0.35) 1.21 (0.27) 1.22 (0.21) 0.92 …
##  9 Arm 2 9            216 1.03 (0.31) 1.21 (0.31) 1.21 (0.17) 1.3 (0.1)   0.8 (…
## 10 Arm 2 10           240 1.44 (0.35) 1.48 (0.28) 1.43 (0.22) 1.43 (0.16) 0.87 …
## # … with 12 more rows
…
